---,UFO,SplineIndex,Speed,HomingSpeed
test0,Beat,,8,100
test1,Beat,,8,100
test2,Beat,,8,100
test3,Beat,,8,100
test4,Beat,"(1,2)",8,100
test5,Beat,,8,100
test6,Beat,,8,100
test7,Gun,,8,100
test8,Beat,,8,100
test9,Beat,,8,100
test10,Lever,,8,100
test11,Beat,,7.888,100
test12,Beat,,7.888,100
test13,Beat,,7.888,100
test14,Beat,"(1,2)",7.888,100
test15,Beat,,8,100
test16,Beat,,8,100
test17,Beat,,8,100
test18,Beat,,8,100
test19,Beat,,8,100
test20,Beat,,8,100
test21,Beat,0,8,100
test22,Beat,0,8,100
test23,Beat,,8,100
test24,Lever,,8,100
test25,Lever,,8,100
test26,Lever,,8,100
test27,Lever,"(4,9)",8,100
test28,Lever,,8,100
test29,Lever,"(4,9)",8,100
test30,Lever,,8,100
test31,Lever,"(4,9)",8,100
test32,Beat,,7.6,100
test33,Lever,"(4,9)",8,100
test34,Beat,"(0,9)",7.6,100
test35,Beat,,8,100
test36,Beat,,8,100
test37,Beat,,8,100
test38,Lever,,8,100
test39,Lever,,8,100
test40,Lever,,8,100
test41,Lever,,8,100
test42,Lever,,8,100
test43,Lever,,8,100
test44,Lever,"(3,9)",8,100
test45,Lever,,8,100
test46,Lever,"(3,9)",8,100
test47,Beat,"(0,9)",6.668,100
test48,Beat,,7.5,100
test49,Lever,,8,100
test50,Lever,,8,100
test51,Beat,,8,100
test52,Beat,"(1,2)",8,100
test53,Beat,,7.88,100
test54,Beat,,7.88,100
test55,Beat,,7.88,100
test56,Beat,,7.88,100
test57,Beat,,7.88,100
test58,Beat,,8,100
test59,Beat,,8,100
test60,Beat,,8,100
test61,Beat,,8,100
test62,Beat,,8,100
test63,Beat,,8,100
test64,Beat,,8,100
test65,Lever,"(4,9)",8,100
test66,Lever,,8,100
test67,Lever,"(4,9)",8,100
test68,Lever,,8,100
test69,Lever,"(4,9)",8,100
test70,Beat,,7.6,100
test71,Lever,"(4,9)",8,100
test72,Beat,"(0,9)",7.6,100
test73,Beat,,8,100
test74,Beat,,8,100
test75,Beat,,8,100
test76,Beat,,8,100
test77,Beat,,7,100
test78,Beat,,7,100
test79,Beat,,6,100
test80,Beat,"(1,2)",6.5,100
test81,Beat,,6.5,100
test82,Beat,"(1,2)",6.5,100
test83,Beat,,6.5,100
test84,Beat,"(1,2)",6.5,100
test85,Beat,,6.8,100
test86,Beat,,6,100
test87,Beat,,8,100
test88,Beat,,8,100
test89,Beat,,8,100
test90,Beat,,8,100
test91,Beat,,8,100
test92,Beat,,8,100
test93,Beat,,8,100
test94,Beat,,8,100
test95,Beat,,8,100
test96,Beat,,8,100
test97,Beat,,8,100
test98,Beat,,8,100
test99,Beat,,8,100
test100,Beat,,8,100
test101,Beat,,8,100
test102,Beat,,8,100
test103,Beat,,8,100
test104,Beat,,8,100
test105,Beat,,8,100
test106,Beat,,8,100
test107,Beat,,8,100
test108,Beat,,8,100
test109,Beat,,8,100
test110,Beat,,8,100
test111,Beat,,8,100
test112,Beat,,8,100
test113,Beat,,8,100
test114,Beat,,8,100
test115,Beat,,8,100
test116,Beat,,8,100
test117,Beat,,8,100
test118,Beat,,8,100
test119,Beat,,8,100
test120,Beat,,8,100
test121,Beat,,8,100
test122,Beat,,8,100
test123,Beat,,8,100
test124,Beat,,8,100
test125,Beat,,8,100
test126,Beat,,8,100
test127,Beat,,8,100
test128,Beat,,8,100
test129,Beat,,8,100
test130,Beat,,8,100
test131,Beat,,8,100
test132,Beat,,8,100
test133,Beat,,8,100
test134,Beat,,8,100
test135,Beat,,8,100
test136,Beat,,8,100
test137,Beat,,8,100
test138,Beat,,8,100
test139,Beat,,8,100
test140,Beat,,8,100
test141,Beat,,8,100
test142,Beat,,8,100
test143,Beat,,8,100
test144,Beat,,8,100
test145,Beat,,8,100
test146,Beat,,8,100
test147,Beat,,8,100
test148,Beat,,8,100
test149,Beat,,8,100
test150,Beat,,8,100
test151,Beat,,8,100
test152,Beat,,8,100
test153,Beat,,8,100
test154,Beat,,8,100
test155,Beat,,8,100
test156,Beat,,8,100
test157,Beat,,8,100
test158,Beat,,8,100
test159,Beat,,8,100
test160,Beat,,8,100
test161,Beat,,8,100
test162,Beat,,8,100
test163,Beat,,8,100
test164,Beat,,8,100
test165,Beat,,8,100
test166,Beat,,8,100
test167,Beat,,8,100
test168,Beat,,8,100
test169,Beat,,8,100
test170,Beat,,8,100
test171,Beat,,8,100
test172,Beat,,8,100
test173,Beat,,8,100
test174,Beat,,8,100
test175,Beat,,8,100
test176,Beat,,8,100
test177,Beat,,8,100
test178,Beat,,8,100
test179,Beat,,8,100
test180,Beat,,8,100
test181,Beat,,8,100
test182,Beat,,8,100
test183,Beat,,8,100
test184,Beat,,8,100
test185,Beat,,8,100
test186,Beat,,8,100
test187,Beat,,8,100
test188,Beat,,8,100
test189,Beat,,8,100
test190,Beat,,8,100
test191,Beat,,8,100
test192,Beat,,8,100
test193,Beat,,8,100
test194,Beat,,8,100
test195,Beat,,8,100
test196,Beat,,8,100
test197,Beat,,8,100
test198,Beat,,8,100
test199,Beat,,8,100
test200,Beat,,8,100
test201,Beat,,8,100
test202,Beat,,8,100
test203,Beat,,8,100
test204,Beat,,8,100
test205,Beat,,8,100
test206,Beat,,8,100
test207,Beat,,8,100
test208,Beat,,8,100
test209,Beat,,8,100
test210,Beat,,8,100
test211,Beat,,8,100
test212,Beat,,8,100
test213,Beat,,8,100
test214,Beat,,8,100
test215,Beat,,8,100
test216,Beat,,8,100
test217,Beat,,8,100
test218,Beat,,8,100
test219,Beat,,8,100
test220,Beat,,8,100
test221,Beat,,8,100
test222,Beat,,8,100
test223,Beat,,8,100
test224,Beat,,8,100
test225,Beat,,8,100
test226,Beat,,8,100
test227,Beat,,8,100
test228,Beat,,8,100
test229,Beat,,8,100
test230,Beat,,8,100
test231,Beat,,8,100
test232,Beat,,8,100
test233,Beat,,8,100
test234,Beat,,8,100
test235,Beat,,8,100
test236,Beat,,8,100
test237,Beat,,8,100
test238,Beat,,8,100
test239,Beat,,8,100
test240,Beat,,8,100
test241,Beat,,8,100
test242,Beat,,8,100
test243,Beat,,8,100
test244,Beat,,8,100
test245,Beat,,8,100
test246,Beat,,8,100
test247,Beat,,8,100
test248,Beat,,8,100
test249,Beat,,8,100
test250,Beat,,8,100
test251,Beat,,8,100
test252,Beat,,8,100
test253,Beat,,8,100
test254,Beat,,8,100
test255,Beat,,8,100
test256,Beat,,8,100
test257,Beat,,8,100
test258,Beat,,8,100
test259,Beat,,8,100
test260,Beat,,8,100
test261,Beat,,8,100
test262,Beat,,8,100
test263,Beat,,8,100
test264,Beat,,8,100
test265,Beat,,8,100
test266,Beat,,8,100
test267,Beat,,8,100
test268,Beat,,8,100
test269,Beat,,8,100
test270,Beat,,8,100
test271,Beat,,8,100
test272,Beat,,8,100
test273,Beat,,8,100
test274,Beat,,8,100
test275,Beat,,8,100
test276,Beat,,8,100
test277,Beat,,8,100
test278,Beat,,8,100
test279,Beat,,8,100
test280,Beat,,8,100
test281,Beat,,8,100
test282,Beat,,8,100
test283,Beat,,8,100
test284,Beat,,8,100
test285,Beat,,8,100
test286,Beat,,8,100
test287,Beat,,8,100
test288,Beat,,8,100
test289,Beat,,8,100
test290,Beat,,8,100
test291,Beat,,8,100
test292,Beat,,8,100
test293,Beat,,8,100
test294,Beat,,8,100
test295,Beat,,8,100
test296,Beat,,8,100
test297,Beat,,8,100
test298,Beat,,8,100
test299,Beat,,8,100
test300,Beat,,8,100
test301,Beat,,8,100
test302,Beat,,8,100
test303,Beat,,8,100
test304,Beat,,8,100
test305,Beat,,8,100
test306,Beat,,8,100
test307,Beat,,8,100
test308,Beat,,8,100
test309,Beat,,8,100
test310,Beat,,8,100
test311,Beat,,8,100
test312,Beat,,8,100
test313,Beat,,8,100
test314,Beat,,8,100
test315,Beat,,8,100
test316,Beat,,8,100
test317,Beat,,8,100
test318,Beat,,8,100
test319,Beat,,8,100
test320,Beat,,8,100
test321,Beat,,8,100
test322,Beat,,8,100
test323,Beat,,8,100
test324,Beat,,8,100
test325,Beat,,8,100
test326,Beat,,8,100
test327,Beat,,8,100
test328,Beat,,8,100
test329,Beat,,8,100
test330,Beat,,8,100
test331,Beat,,8,100
test332,Beat,,8,100
test333,Beat,,8,100
test334,Beat,,8,100
test335,Beat,,8,100
test336,Beat,,8,100
test337,Beat,,8,100
test338,Beat,,8,100
test339,Beat,,8,100
test340,Beat,,8,100
test341,Beat,,8,100
test342,Beat,,8,100
test343,Beat,,8,100
test344,Beat,,8,100
test345,Beat,,8,100
test346,Beat,,8,100
test347,Beat,,8,100
test348,Beat,,8,100
test349,Beat,,8,100
test350,Beat,,8,100
test351,Beat,,8,100
test352,Beat,,8,100
test353,Beat,,8,100
test354,Beat,,8,100
test355,Beat,,8,100
test356,Beat,,8,100
test357,Beat,,8,100
test358,Beat,,8,100
test359,Beat,,8,100
test360,Beat,,8,100
test361,Beat,,8,100
test362,Beat,,8,100
test363,Beat,,8,100
test364,Beat,,8,100
test365,Beat,,8,100
test366,Beat,,8,100
test367,Beat,,8,100
test368,Beat,,8,100
test369,Beat,,8,100
test370,Beat,,8,100
test371,Beat,,8,100
test372,Beat,,8,100
test373,Beat,,8,100
test374,Beat,,8,100
test375,Beat,,8,100
test376,Beat,,8,100
test377,Beat,,8,100
test378,Beat,,8,100
